…
```r
activity <- data.table::fread(input = "data/activity.csv")
activity <- tbl_df(activity) 
```

Let's have a close look to the data: 


```r
activity
```

```
## # A tibble: 17,568 x 3
##    steps date       interval
##    <int> <chr>         <int>
##  1    NA 2012-10-01        0
##  2    NA 2012-10-01        5
##  3    NA 2012-10-01       10
##  4    NA 2012-10-01       15
##  5    NA 2012-10-01       20
##  6    NA 2012-10-01       25
##  7    NA 2012-10-01       30
##  8    NA 2012-10-01       35
##  9    NA 2012-10-01       40
## 10    NA 2012-10-01       45
## # ... with 17,558 more rows
```
…
## What is mean total number of steps taken per day?

1. Let's calculate total number of steps taken per day


```r
stepsTotal <- activity %>% 
        group_by(date)%>%
        summarize(total = sum(steps))

stepsTotal      
```

```
## # A tibble: 61 x 2
##    date       total
##    <date>     <int>
##  1 2012-10-01    NA
##  2 2012-10-02   126
##  3 2012-10-03 11352
##  4 2012-10-04 12116
##  5 2012-10-05 13294
##  6 2012-10-06 15420
##  7 2012-10-07 11015
##  8 2012-10-08    NA
##  9 2012-10-09 12811
## 10 2012-10-10  9900
## # ... with 51 more rows
```
…
```r
filter(activity, interval == 835)
```

```
## # A tibble: 61 x 3
##    steps date       interval
##    <int> <date>        <int>
##  1    NA 2012-10-01      835
##  2     0 2012-10-02      835
##  3    19 2012-10-03      835
##  4   423 2012-10-04      835
##  5   470 2012-10-05      835
##  6   225 2012-10-06      835
##  7     0 2012-10-07      835
##  8    NA 2012-10-08      835
##  9   635 2012-10-09      835
## 10     0 2012-10-10      835
## # ... with 51 more rows
```

```r
filter(test, interval == 835)
```

```
## # A tibble: 61 x 4
## # Groups:   interval [1]
##    steps date       interval median
##    <int> <date>        <int>  <int>
##  1    19 2012-10-01      835     19
##  2     0 2012-10-02      835     19
##  3    19 2012-10-03      835     19
##  4   423 2012-10-04      835     19
##  5   470 2012-10-05      835     19
##  6   225 2012-10-06      835     19
##  7     0 2012-10-07      835     19
##  8    19 2012-10-08      835     19
##  9   635 2012-10-09      835     19
## 10     0 2012-10-10      835     19
## # ... with 51 more rows
```
…
